nominal 1.014 0.018 1.014
mp8 0.839 0.009 1.014
MUR1_MUF1_PDF261000 1.014 0.018 1.014
MUR0.5_MUF0.5_PDF261000_PSMUR0.5_PSMUF0.5 1.052 0.018 1.014
MUR0.5_MUF1_PDF261000_PSMUR0.5_PSMUF1 1.035 0.018 1.014
MUR1_MUF0.5_PDF261000_PSMUR1_PSMUF0.5 1.023 0.018 1.014
MUR1_MUF2_PDF261000_PSMUR1_PSMUF2 1.002 0.018 1.014
MUR2_MUF1_PDF261000_PSMUR2_PSMUF1 1.006 0.018 1.014
MUR2_MUF2_PDF261000_PSMUR2_PSMUF2 1.000 0.018 1.014
MUR1_MUF1_PDF261000 1.014 0.018 1.014
MUR1_MUF1_PDF270000 1.013 0.018 1.014
MUR1_MUF1_PDF269000 1.014 0.018 1.014
MUR1_MUF1_PDF13000 1.011 0.018 1.014
MUR1_MUF1_PDF25300 1.010 0.018 1.014
weight_leptonSF_EL_SF_Trigger_UP 0.992 0.018 1.014
weight_leptonSF_EL_SF_Trigger_DOWN 0.992 0.018 1.014
weight_leptonSF_EL_SF_Reco_UP 1.012 0.018 1.014
weight_leptonSF_EL_SF_Reco_DOWN 1.015 0.018 1.014
weight_leptonSF_EL_SF_ID_UP 0.996 0.018 1.014
weight_leptonSF_EL_SF_ID_DOWN 1.032 0.019 1.014
weight_leptonSF_EL_SF_Isol_UP 1.011 0.018 1.014
weight_leptonSF_EL_SF_Isol_DOWN 1.016 0.018 1.014
weight_leptonSF_MU_SF_Trigger_STAT_UP 0.992 0.018 1.014
weight_leptonSF_MU_SF_Trigger_STAT_DOWN 0.992 0.018 1.014
weight_leptonSF_MU_SF_Trigger_SYST_UP 0.992 0.018 1.014
weight_leptonSF_MU_SF_Trigger_SYST_DOWN 0.992 0.018 1.014
weight_leptonSF_MU_SF_ID_STAT_UP 1.013 0.018 1.014
weight_leptonSF_MU_SF_ID_STAT_DOWN 1.014 0.018 1.014
weight_leptonSF_MU_SF_ID_SYST_UP 1.008 0.018 1.014
weight_leptonSF_MU_SF_ID_SYST_DOWN 1.019 0.019 1.014
weight_leptonSF_MU_SF_ID_STAT_LOWPT_UP 1.014 0.018 1.014
weight_leptonSF_MU_SF_ID_STAT_LOWPT_DOWN 1.014 0.018 1.014
weight_leptonSF_MU_SF_ID_SYST_LOWPT_UP 1.014 0.018 1.014
weight_leptonSF_MU_SF_ID_SYST_LOWPT_DOWN 1.014 0.018 1.014
weight_leptonSF_MU_SF_Isol_STAT_UP 1.010 0.018 1.014
weight_leptonSF_MU_SF_Isol_STAT_DOWN 1.038 0.019 1.014
weight_leptonSF_MU_SF_Isol_SYST_UP 1.012 0.018 1.014
weight_leptonSF_MU_SF_Isol_SYST_DOWN 1.016 0.018 1.014
weight_leptonSF_MU_SF_TTVA_STAT_UP 1.013 0.018 1.014
weight_leptonSF_MU_SF_TTVA_STAT_DOWN 1.014 0.018 1.014
weight_leptonSF_MU_SF_TTVA_SYST_UP 1.013 0.018 1.014
weight_leptonSF_MU_SF_TTVA_SYST_DOWN 1.014 0.018 1.014
PRW_DATASF__1up 1.016 0.019 1.014
PRW_DATASF__1down 1.012 0.018 1.014
EG_RESOLUTION_ALL__1down 1.013 0.018 1.014
EG_RESOLUTION_ALL__1up 1.015 0.018 1.014
EG_SCALE_AF2__1down 1.014 0.018 1.014
EG_SCALE_AF2__1up 1.014 0.018 1.014
EG_SCALE_ALL__1down 1.039 0.019 1.014
EG_SCALE_ALL__1up 0.990 0.018 1.014
MUON_ID__1down 1.014 0.018 1.014
MUON_ID__1up 1.013 0.018 1.014
MUON_MS__1down 1.013 0.018 1.014
MUON_MS__1up 1.013 0.018 1.014
MUON_SAGITTA_RESBIAS__1down 1.013 0.018 1.014
MUON_SAGITTA_RESBIAS__1up 1.013 0.018 1.014
MUON_SAGITTA_RHO__1down 1.014 0.018 1.014
MUON_SAGITTA_RHO__1up 1.014 0.018 1.014
MUON_SCALE__1down 1.010 0.018 1.014
MUON_SCALE__1up 1.017 0.019 1.014
CategoryReduction_JET_CombMass_Baseline__1down 1.014 0.018 1.014
CategoryReduction_JET_CombMass_Baseline__1up 1.013 0.018 1.014
CategoryReduction_JET_CombMass_Modelling__1down 1.014 0.018 1.014
CategoryReduction_JET_CombMass_Modelling__1up 1.013 0.018 1.014
CategoryReduction_JET_CombMass_TotalStat__1down 1.013 0.018 1.014
CategoryReduction_JET_CombMass_TotalStat__1up 1.013 0.018 1.014
CategoryReduction_JET_CombMass_Tracking1__1down 1.014 0.018 1.014
CategoryReduction_JET_CombMass_Tracking1__1up 1.013 0.018 1.014
CategoryReduction_JET_CombMass_Tracking2__1down 1.014 0.018 1.014
CategoryReduction_JET_CombMass_Tracking2__1up 1.013 0.018 1.014
CategoryReduction_JET_CombMass_Tracking3__1down 1.014 0.018 1.014
CategoryReduction_JET_CombMass_Tracking3__1up 1.013 0.018 1.014
CategoryReduction_JET_MassRes_WZ_comb__1down 1.014 0.018 1.014
CategoryReduction_JET_MassRes_WZ_comb__1up 1.014 0.018 1.014
CategoryReduction_JET_EffectiveNP_R10_Detector1__1down 1.012 0.018 1.014
CategoryReduction_JET_EffectiveNP_R10_Detector1__1up 1.015 0.018 1.014
CategoryReduction_JET_EffectiveNP_R10_Detector2__1down 1.013 0.018 1.014
CategoryReduction_JET_EffectiveNP_R10_Detector2__1up 1.014 0.018 1.014
CategoryReduction_JET_EffectiveNP_R10_Mixed1__1down 1.001 0.018 1.014
CategoryReduction_JET_EffectiveNP_R10_Mixed1__1up 1.027 0.019 1.014
CategoryReduction_JET_EffectiveNP_R10_Mixed2__1down 1.020 0.019 1.014
CategoryReduction_JET_EffectiveNP_R10_Mixed2__1up 1.007 0.018 1.014
CategoryReduction_JET_EffectiveNP_R10_Mixed3__1down 1.011 0.018 1.014
CategoryReduction_JET_EffectiveNP_R10_Mixed3__1up 1.016 0.018 1.014
CategoryReduction_JET_EffectiveNP_R10_Mixed4__1down 1.013 0.018 1.014
CategoryReduction_JET_EffectiveNP_R10_Mixed4__1up 1.014 0.018 1.014
CategoryReduction_JET_EffectiveNP_R10_Modelling1__1down 0.995 0.018 1.014
CategoryReduction_JET_EffectiveNP_R10_Modelling1__1up 1.034 0.019 1.014
CategoryReduction_JET_EffectiveNP_R10_Modelling2__1down 1.018 0.019 1.014
CategoryReduction_JET_EffectiveNP_R10_Modelling2__1up 1.009 0.018 1.014
CategoryReduction_JET_EffectiveNP_R10_Modelling3__1down 1.021 0.019 1.014
CategoryReduction_JET_EffectiveNP_R10_Modelling3__1up 1.007 0.018 1.014
CategoryReduction_JET_EffectiveNP_R10_Modelling4__1down 1.011 0.018 1.014
CategoryReduction_JET_EffectiveNP_R10_Modelling4__1up 1.016 0.018 1.014
CategoryReduction_JET_EffectiveNP_R10_Statistical1__1down 1.010 0.018 1.014
CategoryReduction_JET_EffectiveNP_R10_Statistical1__1up 1.017 0.018 1.014
CategoryReduction_JET_EffectiveNP_R10_Statistical2__1down 1.018 0.019 1.014
CategoryReduction_JET_EffectiveNP_R10_Statistical2__1up 1.010 0.018 1.014
CategoryReduction_JET_EffectiveNP_R10_Statistical3__1down 1.015 0.018 1.014
CategoryReduction_JET_EffectiveNP_R10_Statistical3__1up 1.012 0.018 1.014
CategoryReduction_JET_EffectiveNP_R10_Statistical4__1down 1.011 0.018 1.014
CategoryReduction_JET_EffectiveNP_R10_Statistical4__1up 1.016 0.018 1.014
CategoryReduction_JET_EffectiveNP_R10_Statistical5__1down 1.011 0.018 1.014
CategoryReduction_JET_EffectiveNP_R10_Statistical5__1up 1.016 0.018 1.014
CategoryReduction_JET_EffectiveNP_R10_Statistical6__1down 1.013 0.018 1.014
CategoryReduction_JET_EffectiveNP_R10_Statistical6__1up 1.015 0.018 1.014
CategoryReduction_JET_EtaIntercalibration_Modelling__1down 1.003 0.018 1.014
CategoryReduction_JET_EtaIntercalibration_Modelling__1up 1.023 0.019 1.014
CategoryReduction_JET_EtaIntercalibration_NonClosure_2018data__1down 1.009 0.018 1.014
CategoryReduction_JET_EtaIntercalibration_NonClosure_2018data__1up 1.018 0.019 1.014
CategoryReduction_JET_EtaIntercalibration_R10_TotalStat__1down 1.012 0.018 1.014
CategoryReduction_JET_EtaIntercalibration_R10_TotalStat__1up 1.015 0.018 1.014
CategoryReduction_JET_Flavor_Composition__1down 0.999 0.018 1.014
CategoryReduction_JET_Flavor_Composition__1up 1.029 0.019 1.014
CategoryReduction_JET_Flavor_Response__1down 0.994 0.018 1.014
CategoryReduction_JET_Flavor_Response__1up 1.035 0.019 1.014
CategoryReduction_JET_LargeR_TopologyUncertainty_V__1down 1.013 0.018 1.014
CategoryReduction_JET_LargeR_TopologyUncertainty_V__1up 1.014 0.018 1.014
CategoryReduction_JET_SingleParticle_HighPt__1down 1.013 0.018 1.014
CategoryReduction_JET_SingleParticle_HighPt__1up 1.014 0.018 1.014
