ATLAS_lumi_run2 -0.003 0.993 0.993 1.320 -0.023 0.026 -0.023 0.025 0.081
ATLAS_PRW_DATASF -0.017 0.924 0.924 1.320 0.001 0.002 0.001 0.002 0.081
ATLAS_CategoryReduction_JET_CombMass_Baseline -0.083 0.967 0.967 1.320 -0.012 0.009 -0.011 0.009 0.081
ATLAS_CategoryReduction_JET_CombMass_Modelling -0.170 0.835 0.835 1.320 -0.025 0.004 -0.015 0.004 0.081
ATLAS_CategoryReduction_JET_CombMass_TotalStat -0.002 0.995 0.995 1.320 0.002 0.000 0.002 0.000 0.081
ATLAS_CategoryReduction_JET_CombMass_Tracking1 -0.046 0.981 0.981 1.320 0.002 -0.003 0.002 -0.003 0.081
ATLAS_CategoryReduction_JET_CombMass_Tracking2 -0.069 0.971 0.971 1.320 -0.004 0.001 -0.003 0.001 0.081
ATLAS_CategoryReduction_JET_CombMass_Tracking3 -0.054 0.980 0.980 1.320 -0.003 0.002 -0.002 0.002 0.081
ATLAS_CategoryReduction_JET_EffectiveNP_R10_Detector1 -0.002 0.992 0.992 1.320 -0.000 0.002 -0.000 0.002 0.081
ATLAS_CategoryReduction_JET_EffectiveNP_R10_Detector2 -0.001 0.992 0.992 1.320 -0.001 0.002 -0.001 0.002 0.081
ATLAS_CategoryReduction_JET_EffectiveNP_R10_Mixed1 -0.049 0.943 0.943 1.320 -0.010 0.006 -0.008 0.006 0.081
ATLAS_CategoryReduction_JET_EffectiveNP_R10_Mixed2 -0.003 0.991 0.991 1.320 0.006 -0.007 0.006 -0.007 0.081
ATLAS_CategoryReduction_JET_EffectiveNP_R10_Mixed3 0.002 1.006 1.006 1.320 -0.008 0.011 -0.008 0.011 0.081
ATLAS_CategoryReduction_JET_EffectiveNP_R10_Mixed4 -0.002 0.989 0.989 1.320 0.002 -0.000 0.002 -0.000 0.081
ATLAS_CategoryReduction_JET_EffectiveNP_R10_Modelling1 -0.059 0.958 0.958 1.320 -0.027 0.025 -0.024 0.025 0.081
ATLAS_CategoryReduction_JET_EffectiveNP_R10_Modelling2 -0.004 0.991 0.991 1.320 0.015 -0.015 0.015 -0.015 0.081
ATLAS_CategoryReduction_JET_EffectiveNP_R10_Modelling3 0.002 0.997 0.997 1.320 0.006 -0.005 0.006 -0.005 0.081
ATLAS_CategoryReduction_JET_EffectiveNP_R10_Modelling4 0.001 1.001 1.001 1.320 -0.003 0.005 -0.003 0.005 0.081
ATLAS_CategoryReduction_JET_EffectiveNP_R10_Statistical1 0.009 0.994 0.994 1.320 -0.002 0.003 -0.002 0.003 0.081
ATLAS_CategoryReduction_JET_EffectiveNP_R10_Statistical2 -0.008 0.993 0.993 1.320 0.012 -0.011 0.012 -0.011 0.081
ATLAS_CategoryReduction_JET_EffectiveNP_R10_Statistical3 0.001 0.995 0.995 1.320 -0.001 0.003 -0.001 0.003 0.081
ATLAS_CategoryReduction_JET_EffectiveNP_R10_Statistical4 0.003 1.000 1.000 1.320 -0.001 0.003 -0.001 0.003 0.081
ATLAS_CategoryReduction_JET_EffectiveNP_R10_Statistical5 -0.002 0.996 0.996 1.320 0.004 -0.001 0.004 -0.001 0.081
ATLAS_CategoryReduction_JET_EffectiveNP_R10_Statistical6 -0.002 0.996 0.996 1.320 0.000 0.002 0.000 0.002 0.081
ATLAS_CategoryReduction_JET_EtaIntercalibration_Modelling -0.041 0.929 0.929 1.320 -0.016 0.010 -0.014 0.010 0.081
ATLAS_CategoryReduction_JET_EtaIntercalibration_NonClosure_2018data -0.019 0.985 0.985 1.320 -0.011 0.009 -0.011 0.009 0.081
ATLAS_CategoryReduction_JET_EtaIntercalibration_R10_TotalStat 0.002 0.996 0.996 1.320 -0.002 0.003 -0.002 0.003 0.081
ATLAS_CategoryReduction_JET_Flavor_Composition -0.000 1.006 1.006 1.320 0.016 -0.009 0.016 -0.009 0.081
ATLAS_CategoryReduction_JET_Flavor_Response 0.006 1.003 1.003 1.320 0.026 -0.019 0.026 -0.019 0.081
ATLAS_CategoryReduction_JET_LargeR_TopologyUncertainty_XX -0.082 1.025 1.025 1.320 -0.054 0.051 -0.052 0.056 0.081
ATLAS_CategoryReduction_JET_SingleParticle_HighPt -0.000 0.993 0.993 1.320 0.001 0.001 0.001 0.001 0.081
ATLAS_CategoryReduction_JET_MassRes_XX_comb -0.417 0.531 0.531 1.320 -0.698 0.158 -0.220 0.148 0.081
ATLAS_ttbar_PS -0.020 0.994 0.994 1.320 -0.019 0.021 -0.019 0.021 0.081
ATLAS_ttbar_ME -0.010 0.993 0.993 1.320 -0.009 0.011 -0.009 0.011 0.081
ATLAS_ttbar_XS -0.021 0.994 0.994 1.320 -0.020 0.021 -0.019 0.022 0.081
ATLAS_W_XS -0.004 0.993 0.993 1.320 -0.002 0.005 -0.002 0.005 0.081
ATLAS_W_scale -0.004 0.993 0.993 1.320 -0.002 0.004 -0.002 0.004 0.081
ATLAS_Z_scale -0.001 0.993 0.993 1.320 -0.024 0.027 -0.024 0.027 0.081
ATLAS_Z_pdf -0.000 0.993 0.993 1.320 -0.009 0.011 -0.008 0.011 0.081
sh228lund -0.003 0.991 0.991 1.320 0.020 -0.036 0.020 -0.036 0.081
ATLAS_W_pdf -0.001 0.993 0.993 1.320 0.001 0.002 0.001 0.002 0.081
Background_modelling_SS -0.001 0.993 0.993 1.320 -0.113 0.115 -0.112 0.114 0.081
zqqHerwig -0.082 0.637 0.637 1.320 0.156 -0.339 0.116 -0.209 0.081
